%YAML 1.1
%TAG !u! tag:unity3d.com,2011:
--- !u!74 &7400000
AnimationClip:
  m_ObjectHideFlags: 0
  m_PrefabParentObject: {fileID: 0}
  m_PrefabInternal: {fileID: 0}
  m_Name: AsianUnhappyCry
  serializedVersion: 6
  m_Legacy: 0
  m_Compressed: 0
  m_UseHighQualityCurve: 1
  m_RotationCurves: []
  m_CompressedRotationCurves: []
  m_EulerCurves: []
  m_PositionCurves: []
  m_ScaleCurves: []
  m_FloatCurves: []
  m_PPtrCurves:
  - curve:
    - time: 0
      value: {fileID: 21300000, guid: 5c929c85533a7af40ac9d9e9ec270f2f, type: 3}
    - time: 0.29411766
      value: {fileID: 21300000, guid: c390003c680d431419b7b59cc3d30104, type: 3}
    - time: 0.5882353
      value: {fileID: 21300000, guid: 684b8480e90e91341a4ec973d9cc90e1, type: 3}
    - time: 0.88235295
      value: {fileID: 21300000, guid: c390003c680d431419b7b59cc3d30104, type: 3}
    - time: 1.1764706
      value: {fileID: 21300000, guid: 684b8480e90e91341a4ec973d9cc90e1, type: 3}
    - time: 1.4705882
      value: {fileID: 21300000, guid: c390003c680d431419b7b59cc3d30104, type: 3}
    - time: 1.7647059
      value: {fileID: 21300000, guid: 684b8480e90e91341a4ec973d9cc90e1, type: 3}
    - time: 2.0588236
      value: {fileID: 21300000, guid: c390003c680d431419b7b59cc3d30104, type: 3}
    - time: 2.3529413
      value: {fileID: 21300000, guid: 5c929c85533a7af40ac9d9e9ec270f2f, type: 3}
    - time: 2.6470587
      value: {fileID: 21300000, guid: 294f0a605c8267147bae39d23b89abc5, type: 3}
    - time: 2.9411764
      value: {fileID: 21300000, guid: 294f0a605c8267147bae39d23b89abc5, type: 3}
    - time: 3.235294
      value: {fileID: 21300000, guid: 3e3c593a732e706469002547b40269eb, type: 3}
    - time: 3.5294118
      value: {fileID: 21300000, guid: 3e3c593a732e706469002547b40269eb, type: 3}
    - time: 3.8235295
      value: {fileID: 21300000, guid: 294f0a605c8267147bae39d23b89abc5, type: 3}
    - time: 4.117647
      value: {fileID: 21300000, guid: 5c929c85533a7af40ac9d9e9ec270f2f, type: 3}
    - time: 4.4117646
      value: {fileID: 21300000, guid: c390003c680d431419b7b59cc3d30104, type: 3}
    - time: 4.7058825
      value: {fileID: 21300000, guid: 5c929c85533a7af40ac9d9e9ec270f2f, type: 3}
    - time: 5
      value: {fileID: 21300000, guid: c390003c680d431419b7b59cc3d30104, type: 3}
    - time: 5.2941175
      value: {fileID: 21300000, guid: 294f0a605c8267147bae39d23b89abc5, type: 3}
    attribute: m_Sprite
    path: 
    classID: 212
    script: {fileID: 0}
  m_SampleRate: 17
  m_WrapMode: 0
  m_Bounds:
    m_Center: {x: 0, y: 0, z: 0}
    m_Extent: {x: 0, y: 0, z: 0}
  m_ClipBindingConstant:
    genericBindings:
    - serializedVersion: 2
      path: 0
      attribute: 0
      script: {fileID: 0}
      typeID: 212
      customType: 23
      isPPtrCurve: 1
    pptrCurveMapping:
    - {fileID: 21300000, guid: 5c929c85533a7af40ac9d9e9ec270f2f, type: 3}
    - {fileID: 21300000, guid: c390003c680d431419b7b59cc3d30104, type: 3}
    - {fileID: 21300000, guid: 684b8480e90e91341a4ec973d9cc90e1, type: 3}
    - {fileID: 21300000, guid: c390003c680d431419b7b59cc3d30104, type: 3}
    - {fileID: 21300000, guid: 684b8480e90e91341a4ec973d9cc90e1, type: 3}
    - {fileID: 21300000, guid: c390003c680d431419b7b59cc3d30104, type: 3}
    - {fileID: 21300000, guid: 684b8480e90e91341a4ec973d9cc90e1, type: 3}
    - {fileID: 21300000, guid: c390003c680d431419b7b59cc3d30104, type: 3}
    - {fileID: 21300000, guid: 5c929c85533a7af40ac9d9e9ec270f2f, type: 3}
    - {fileID: 21300000, guid: 294f0a605c8267147bae39d23b89abc5, type: 3}
    - {fileID: 21300000, guid: 294f0a605c8267147bae39d23b89abc5, type: 3}
    - {fileID: 21300000, guid: 3e3c593a732e706469002547b40269eb, type: 3}
    - {fileID: 21300000, guid: 3e3c593a732e706469002547b40269eb, type: 3}
    - {fileID: 21300000, guid: 294f0a605c8267147bae39d23b89abc5, type: 3}
    - {fileID: 21300000, guid: 5c929c85533a7af40ac9d9e9ec270f2f, type: 3}
    - {fileID: 21300000, guid: c390003c680d431419b7b59cc3d30104, type: 3}
    - {fileID: 21300000, guid: 5c929c85533a7af40ac9d9e9ec270f2f, type: 3}
    - {fileID: 21300000, guid: c390003c680d431419b7b59cc3d30104, type: 3}
    - {fileID: 21300000, guid: 294f0a605c8267147bae39d23b89abc5, type: 3}
  m_AnimationClipSettings:
    serializedVersion: 2
    m_AdditiveReferencePoseClip: {fileID: 0}
    m_AdditiveReferencePoseTime: 0
    m_StartTime: 0
    m_StopTime: 5.352941
    m_OrientationOffsetY: 0
    m_Level: 0
    m_CycleOffset: 0
    m_HasAdditiveReferencePose: 0
    m_LoopTime: 0
    m_LoopBlend: 0
    m_LoopBlendOrientation: 0
    m_LoopBlendPositionY: 0
    m_LoopBlendPositionXZ: 0
    m_KeepOriginalOrientation: 0
    m_KeepOriginalPositionY: 1
    m_KeepOriginalPositionXZ: 0
    m_HeightFromFeet: 0
    m_Mirror: 0
  m_EditorCurves: []
  m_EulerEditorCurves: []
  m_HasGenericRootTransform: 0
  m_HasMotionFloatCurves: 0
  m_GenerateMotionCurves: 0
  m_Events:
  - time: 0.11764706
    functionName: playRandomCrySound
    data: 
    objectReferenceParameter: {fileID: 0}
    floatParameter: 0
    intParameter: 0
    messageOptions: 0
