%YAML 1.1
%TAG !u! tag:unity3d.com,2011:
--- !u!74 &7400000
AnimationClip:
  m_ObjectHideFlags: 0
  m_PrefabParentObject: {fileID: 0}
  m_PrefabInternal: {fileID: 0}
  m_Name: ScandicHappyLaugh
  serializedVersion: 6
  m_Legacy: 0
  m_Compressed: 0
  m_UseHighQualityCurve: 1
  m_RotationCurves: []
  m_CompressedRotationCurves: []
  m_EulerCurves: []
  m_PositionCurves: []
  m_ScaleCurves: []
  m_FloatCurves: []
  m_PPtrCurves:
  - curve:
    - time: 0
      value: {fileID: 21300000, guid: 7b7bdd01fa238fe4e99f47f11470c62a, type: 3}
    - time: 0.11111111
      value: {fileID: 21300000, guid: cc0ff086e364f2641b5e88eb945a9eb7, type: 3}
    - time: 0.22222222
      value: {fileID: 21300000, guid: 2560d67d8d62da3478ca9b70bc56653b, type: 3}
    - time: 0.33333334
      value: {fileID: 21300000, guid: 396350c2752e750429c5ce2f0fef3279, type: 3}
    - time: 0.44444445
      value: {fileID: 21300000, guid: b4162b20d61724944a8d3ec6247c64e4, type: 3}
    - time: 0.5555556
      value: {fileID: 21300000, guid: c8348ee8d023231469f8168019be23d7, type: 3}
    - time: 0.6666667
      value: {fileID: 21300000, guid: bcd79ffd3003cc84e948d5c2e012e81b, type: 3}
    - time: 0.7777778
      value: {fileID: 21300000, guid: 15b49a8ba397188478a8aa48ec687d69, type: 3}
    - time: 0.8888889
      value: {fileID: 21300000, guid: c40c5d8e68c0c024a9a7ce29862a2a84, type: 3}
    - time: 1
      value: {fileID: 21300000, guid: caf4ca9ce20efc34695d095b5189f3fc, type: 3}
    - time: 1.1111112
      value: {fileID: 21300000, guid: 15b49a8ba397188478a8aa48ec687d69, type: 3}
    - time: 1.2222222
      value: {fileID: 21300000, guid: bcd79ffd3003cc84e948d5c2e012e81b, type: 3}
    - time: 1.3333334
      value: {fileID: 21300000, guid: c8348ee8d023231469f8168019be23d7, type: 3}
    - time: 1.4444444
      value: {fileID: 21300000, guid: b4162b20d61724944a8d3ec6247c64e4, type: 3}
    - time: 1.5555556
      value: {fileID: 21300000, guid: 396350c2752e750429c5ce2f0fef3279, type: 3}
    - time: 1.6666666
      value: {fileID: 21300000, guid: 2560d67d8d62da3478ca9b70bc56653b, type: 3}
    - time: 1.7777778
      value: {fileID: 21300000, guid: cc0ff086e364f2641b5e88eb945a9eb7, type: 3}
    - time: 1.8888888
      value: {fileID: 21300000, guid: 7b7bdd01fa238fe4e99f47f11470c62a, type: 3}
    attribute: m_Sprite
    path: 
    classID: 212
    script: {fileID: 0}
  m_SampleRate: 45
  m_WrapMode: 0
  m_Bounds:
    m_Center: {x: 0, y: 0, z: 0}
    m_Extent: {x: 0, y: 0, z: 0}
  m_ClipBindingConstant:
    genericBindings:
    - serializedVersion: 2
      path: 0
      attribute: 0
      script: {fileID: 0}
      typeID: 212
      customType: 23
      isPPtrCurve: 1
    pptrCurveMapping:
    - {fileID: 21300000, guid: 7b7bdd01fa238fe4e99f47f11470c62a, type: 3}
    - {fileID: 21300000, guid: cc0ff086e364f2641b5e88eb945a9eb7, type: 3}
    - {fileID: 21300000, guid: 2560d67d8d62da3478ca9b70bc56653b, type: 3}
    - {fileID: 21300000, guid: 396350c2752e750429c5ce2f0fef3279, type: 3}
    - {fileID: 21300000, guid: b4162b20d61724944a8d3ec6247c64e4, type: 3}
    - {fileID: 21300000, guid: c8348ee8d023231469f8168019be23d7, type: 3}
    - {fileID: 21300000, guid: bcd79ffd3003cc84e948d5c2e012e81b, type: 3}
    - {fileID: 21300000, guid: 15b49a8ba397188478a8aa48ec687d69, type: 3}
    - {fileID: 21300000, guid: c40c5d8e68c0c024a9a7ce29862a2a84, type: 3}
    - {fileID: 21300000, guid: caf4ca9ce20efc34695d095b5189f3fc, type: 3}
    - {fileID: 21300000, guid: 15b49a8ba397188478a8aa48ec687d69, type: 3}
    - {fileID: 21300000, guid: bcd79ffd3003cc84e948d5c2e012e81b, type: 3}
    - {fileID: 21300000, guid: c8348ee8d023231469f8168019be23d7, type: 3}
    - {fileID: 21300000, guid: b4162b20d61724944a8d3ec6247c64e4, type: 3}
    - {fileID: 21300000, guid: 396350c2752e750429c5ce2f0fef3279, type: 3}
    - {fileID: 21300000, guid: 2560d67d8d62da3478ca9b70bc56653b, type: 3}
    - {fileID: 21300000, guid: cc0ff086e364f2641b5e88eb945a9eb7, type: 3}
    - {fileID: 21300000, guid: 7b7bdd01fa238fe4e99f47f11470c62a, type: 3}
  m_AnimationClipSettings:
    serializedVersion: 2
    m_AdditiveReferencePoseClip: {fileID: 0}
    m_AdditiveReferencePoseTime: 0
    m_StartTime: 0
    m_StopTime: 1.9111111
    m_OrientationOffsetY: 0
    m_Level: 0
    m_CycleOffset: 0
    m_HasAdditiveReferencePose: 0
    m_LoopTime: 0
    m_LoopBlend: 0
    m_LoopBlendOrientation: 0
    m_LoopBlendPositionY: 0
    m_LoopBlendPositionXZ: 0
    m_KeepOriginalOrientation: 0
    m_KeepOriginalPositionY: 1
    m_KeepOriginalPositionXZ: 0
    m_HeightFromFeet: 0
    m_Mirror: 0
  m_EditorCurves: []
  m_EulerEditorCurves: []
  m_HasGenericRootTransform: 0
  m_HasMotionFloatCurves: 0
  m_GenerateMotionCurves: 0
  m_Events:
  - time: 0.022222223
    functionName: PlayRandomHappySound
    data: 
    objectReferenceParameter: {fileID: 0}
    floatParameter: 0
    intParameter: 0
    messageOptions: 0
